{
  "CamelFile": [
    {
      "mcapplication": "mcp",
      "mcaversion": "0.0"
    },
    {
      "mcapplication": "new",
      "mcaversion": "0.0"
    },
    {
      "mcapplication": "new2",
      "mcaversion": "0.0"
    },    {
      "mcapplication": "ScalarmModel",
      "mcaversion": "0.1"
    },
    {
      "mcapplication": "SimpleModelTUT",
      "mcaversion": "0.2"
    },
    {
      "mcapplication": "TSMModel",
      "mcaversion": "1.0"
    }
  ]
}